<?xml version="1.0" encoding="UTF-8" standalone="no"?>
<!DOCTYPE svg PUBLIC "-//W3C//DTD SVG 1.1//EN" "http://www.w3.org/Graphics/SVG/1.1/DTD/svg11.dtd">
<svg xmlns="http://www.w3.org/2000/svg" version="1.1" viewBox="0.00 0.00 1025.00 355.00">
<style>
        path, rect, ellipse {
            fill: black;
        }
        @media (prefers-color-scheme: dark) {
            path, rect, ellipse { fill: white; }
        }
    </style>
<ellipse cx="0.00" cy="0.00" transform="translate(325.94,109.96) rotate(0.5)" rx="15.22" ry="13.46"/>
<path fill="#00000" d="
  M 134.94 118.25
  C 155.93 127.76 170.49 146.39 171.09 169.54
  C 172.88 238.79 48.67 237.44 45.15 172.06
  C 44.05 151.80 55.22 133.19 72.22 122.74
  Q 74.56 121.30 76.90 119.89
  C 84.69 115.19 90.62 105.55 93.65 97.15
  Q 93.81 96.72 94.26 96.81
  L 116.78 101.01
  Q 117.34 101.12 117.62 101.62
  C 121.73 109.15 127.11 114.71 134.94 118.25
  Z
  M 78.38 149.79
  C 72.28 164.90 66.07 184.00 70.23 200.15
  Q 70.36 200.65 70.78 200.94
  Q 77.19 205.33 84.50 207.99
  Q 85.34 208.29 85.31 207.40
  C 84.79 192.98 86.09 175.76 92.83 162.60
  A 0.33 0.33 0.0 0 1 93.45 162.80
  C 91.41 175.70 89.89 189.69 91.52 202.75
  Q 92.01 206.61 93.81 210.13
  Q 94.08 210.65 94.65 210.74
  Q 104.00 212.34 113.48 212.25
  A 0.79 0.79 0.0 0 0 114.21 211.72
  C 120.25 193.53 125.02 170.22 118.11 151.71
  A 0.16 0.16 0.0 0 1 118.39 151.57
  C 128.52 167.86 137.26 190.92 127.74 209.62
  A 0.27 0.27 0.0 0 0 128.04 210.00
  Q 135.69 208.04 142.59 204.18
  C 151.76 199.04 149.19 170.48 147.62 161.75
  Q 147.16 159.18 148.52 161.40
  C 154.25 170.75 154.60 182.83 154.19 193.50
  Q 154.16 194.38 154.70 193.69
  Q 159.74 187.32 161.33 179.25
  C 165.27 159.30 155.11 140.31 138.00 130.07
  Q 137.97 130.05 130.31 126.27
  Q 118.88 120.63 111.85 109.63
  A 1.25 1.24 78.7 0 0 111.04 109.08
  L 99.75 106.99
  A 0.67 0.66 18.0 0 0 99.03 107.35
  C 94.19 117.29 87.90 123.81 78.49 129.40
  C 58.67 141.17 48.22 163.68 57.59 185.90
  Q 58.29 187.55 58.54 185.78
  Q 61.68 164.04 78.06 149.56
  Q 78.70 149.00 78.38 149.79
  Z"
/>
<path fill="#ffffff" d="
  M 848.68 137.21
  Q 864.81 127.48 882.29 131.02
  C 932.42 141.18 928.55 215.81 876.43 220.71
  Q 859.88 222.27 846.17 211.72
  Q 845.60 211.28 845.47 211.99
  L 844.54 217.42
  A 0.70 0.70 0.0 0 1 843.85 218.00
  L 823.46 218.00
  Q 822.99 218.00 822.99 217.53
  L 823.00 103.00
  Q 823.00 102.50 823.50 102.50
  L 847.75 102.50
  Q 848.25 102.50 848.25 103.00
  L 848.25 136.97
  Q 848.25 137.47 848.68 137.21
  Z
  M 868.7525 199.1010
  A 23.61 22.80 92.3 0 0 892.4816 176.4250
  A 23.61 22.80 92.3 0 0 870.6475 151.9190
  A 23.61 22.80 92.3 0 0 846.9184 174.5950
  A 23.61 22.80 92.3 0 0 868.7525 199.1010
  Z"
/>
<path fill="#ffffff" d="
  M 597.42 137.58
  C 598.40 110.16 622.27 102.88 645.51 103.84
  C 666.60 104.70 683.86 114.71 683.99 138.25
  Q 683.99 138.74 683.50 138.74
  L 658.95 138.77
  A 0.99 0.98 87.1 0 1 657.97 137.88
  C 656.78 124.79 639.57 124.74 630.50 127.52
  C 623.33 129.72 620.52 138.86 627.07 143.66
  Q 630.33 146.04 635.53 147.39
  C 658.53 153.31 691.47 157.00 687.60 190.41
  C 686.14 202.98 677.11 212.43 665.29 216.56
  C 638.08 226.06 595.19 221.14 593.19 183.86
  A 0.57 0.57 0.0 0 1 593.76 183.25
  L 618.47 183.25
  Q 619.01 183.25 619.07 183.78
  Q 620.13 193.42 629.26 196.53
  C 636.99 199.16 654.33 199.97 659.67 192.19
  C 663.16 187.10 661.85 180.59 656.76 177.04
  C 651.73 173.53 643.83 172.16 637.94 170.47
  C 619.89 165.31 596.55 162.15 597.42 137.58
  Z"
/>
<path fill="#ffffff" d="
  M 123.27 127.14
  A 1.40 1.39 -75.4 0 1 123.98 128.36
  C 123.98 130.39 122.11 131.34 120.14 130.26
  Q 111.34 125.42 108.25 116.28
  Q 107.70 114.66 109.34 114.17
  C 111.39 113.56 112.03 114.25 112.85 116.07
  Q 115.99 123.02 123.27 127.14
  Z"
/>
<rect fill="#ffffff" x="-2.28" y="-6.43" transform="translate(98.27,124.06) rotate(29.5)" width="4.56" height="12.86" rx="2.14"/>
<path fill="#ffffff" d="
  M 221.05 139.06
  Q 236.09 129.03 253.39 130.49
  C 276.29 132.42 286.51 148.65 286.52 170.50
  Q 286.53 194.02 286.48 217.51
  A 0.49 0.49 0.0 0 1 285.99 218.00
  L 261.52 218.00
  A 0.49 0.49 0.0 0 1 261.03 217.51
  Q 260.93 194.07 261.02 170.76
  C 261.12 145.21 229.69 146.91 224.74 168.11
  Q 224.05 171.03 224.03 177.59
  Q 223.96 197.57 224.02 217.45
  A 0.55 0.55 0.0 0 1 223.47 218.00
  L 199.87 218.00
  Q 198.73 218.00 198.73 216.87
  L 198.52 133.60
  Q 198.52 132.98 199.15 132.98
  L 218.51 133.01
  Q 219.05 133.01 219.17 133.53
  L 220.41 138.81
  Q 220.55 139.40 221.05 139.06
  Z"
/>
<path fill="#ffffff" d="
  M 460.2093 175.6893
  A 47.61 45.47 0.3 0 1 412.3619 220.9094
  A 47.61 45.47 0.3 0 1 364.9907 175.1907
  A 47.61 45.47 0.3 0 1 412.8381 129.9706
  A 47.61 45.47 0.3 0 1 460.2093 175.6893
  Z
  M 413.0714 199.0464
  A 23.57 22.25 89.0 0 0 434.9066 175.0917
  A 23.57 22.25 89.0 0 0 412.2486 151.9136
  A 23.57 22.25 89.0 0 0 390.4134 175.8683
  A 23.57 22.25 89.0 0 0 413.0714 199.0464
  Z"
/>
<path fill="#ffffff" d="
  M 507.32 139.06
  Q 521.86 129.18 538.65 130.40
  C 561.88 132.08 572.35 147.65 572.58 169.81
  Q 572.83 193.67 572.74 217.51
  A 0.49 0.49 0.0 0 1 572.25 218.00
  L 547.77 218.00
  A 0.50 0.50 0.0 0 1 547.27 217.51
  Q 547.19 195.32 547.28 173.27
  Q 547.30 167.63 545.63 162.31
  C 541.41 148.90 523.86 149.66 515.94 158.19
  C 511.29 163.20 510.34 169.33 510.29 176.73
  Q 510.15 197.09 510.02 217.45
  Q 510.02 218.00 509.47 218.00
  L 485.38 218.00
  Q 484.75 218.00 484.75 217.37
  L 484.75 133.49
  Q 484.75 132.98 485.26 132.98
  L 504.74 133.01
  A 0.60 0.60 0.0 0 1 505.32 133.47
  L 506.58 138.77
  Q 506.74 139.45 507.32 139.06
  Z"
/>
<path fill="#ffffff" d="
  M 936.07 191.42
  L 959.75 191.52
  Q 960.36 191.52 960.50 192.04
  C 962.89 200.56 973.65 200.80 980.76 199.26
  C 983.59 198.65 985.81 197.55 986.99 194.81
  C 989.61 188.71 979.50 186.33 974.75 185.49
  C 957.26 182.42 937.63 178.90 938.56 157.05
  C 939.17 142.74 948.07 134.71 961.51 131.79
  C 981.86 127.38 1009.50 131.15 1011.12 157.60
  Q 1011.17 158.50 1010.26 158.50
  L 986.44 158.50
  Q 985.78 158.50 985.60 157.86
  C 983.18 148.93 967.18 148.22 964.16 155.97
  C 961.66 162.37 971.30 163.66 975.70 164.31
  C 989.32 166.34 1010.56 168.91 1013.37 186.68
  C 1016.19 204.47 1004.14 216.18 987.61 219.46
  C 966.67 223.61 936.90 219.07 935.53 191.99
  Q 935.50 191.42 936.07 191.42
  Z"
/>
<rect fill="#ffffff" x="313.00" y="132.98" width="25.50" height="85.02" rx="0.38"/>
<path fill="#ffffff" d="
  M 796.51 178.74
  C 796.41 210.16 775.46 222.96 746.09 220.19
  C 723.18 218.03 710.12 204.33 709.79 180.68
  Q 709.46 157.00 709.47 133.96
  Q 709.47 132.98 710.46 132.98
  L 734.50 133.01
  Q 734.99 133.01 734.99 133.50
  Q 735.02 156.52 734.99 179.49
  C 734.97 194.60 744.95 201.50 759.31 198.06
  C 766.83 196.25 770.93 188.61 770.95 181.43
  Q 771.04 157.38 770.99 133.97
  Q 770.99 132.98 771.97 132.98
  L 795.97 133.01
  Q 796.46 133.01 796.46 133.50
  Q 796.58 156.19 796.51 178.74
  Z"
/>
</svg>
